1 10 20
100 200 125
201 210 89
900 1000 174
10 1 20
30 30 19
1 1 1
999998 999999 259
9999 10000 92
1 9999 262
1 20000 279
1 30000 308
1 40000 324
1 50000 324
1 60000 340
1 70000 340
1 80000 351
1 90000 351
1 100000 351
999999 999998 259
10000 9999 92
9999 1 262
20000 1 279
30000 1 308
40000 1 324
50000 1 324
60000 1 340
70000 1 340
80000 1 351
90000 1 351
100000 1 351
1001 2000 182
2001 3000 217
3001 4000 238
10000 9000 260
10000 9900 180
19223 10000 279
19223 100000 351
99999 10000 351
5500 8000 262
5750 1000 238
4500 50000 324
500 200 144
200 500 144
9333 9333 35
1001 2000 182
3000 4000 238
30000 40000 324
30001 40001 324
29999 30001 179
400001 85000 443
81 91822 351
4825 812223 509
1 23 21
1500 55000 340
1000 900000 525
10001 900001 525
25 28 112
1 5 8
8001 9000 247
9001 10001 260
9000 1 262
8543 9122 247
8999 9000 185
8999 10001 260
93374 82211 333
17664 9 279
938382 92281 525
938472 948909 507
999999 999999 259
10 83944 351
100223 129293 354
1 1001 179
1 20002 279
1 92733 351
1 650000 509
500000 1 449
6666 66666 340
94 91 106
900000 540 525
3999 4999 215
5001 6999 262
5001 6000 236
5000 6000 236
1 150000 375
850 450 171
65 64 28
88776 87770 333
10040 20030 279
5000 10000 262
150000 250000 443
90000 899999 525
999999 88788 525
2500 999999 525
57741 999999 525
100 999999 525
999999 75500 525
60000 999999 525
47746 999999 525
800000 999999 525
1 2 2
200 500 144
