1 10 20
100 200 125
201 210 89
900 1000 174
801388 993809 525
321766 804837 509
657323 879832 525
419950 592254 470
730008 966069 525
187340 273057 443
495685 920292 525
36420 130390 354
670319 740726 504
810697 920726 525
775365 812160 468
44986 176151 383
783330 788350 406
146489 976462 525
875703 984901 507
638280 959909 525
474950 496693 426
244009 499664 449
451685 508742 444
539320 705357 509
328139 666417 509
710235 888672 525
659864 780307 504
262854 546916 470
587719 866237 525
868509 930612 476
402000 671108 509
240110 612587 470
126502 287003 443
514344 606627 452
195665 919848 525
814613 842723 525
698129 771350 504
13438 898249 525
61998 243051 443
276242 514973 470
815517 953215 525
584167 585016 359
509883 861782 525
506090 710691 509
466609 875799 525
279519 401999 441
178474 562219 470
803839 992057 525
862408 865385 344
40614 703973 509
36837 966583 525
597052 773153 509
782607 858496 525
582912 789202 509
640012 765848 504
50299 373796 443
938886 968413 507
329262 672189 509
637758 710292 504
981473 997069 427
877266 886971 445
928177 994098 507
457034 580911 470
296931 694783 509
681925 969453 525
483473 667562 509
902995 958378 507
405082 520887 470
404563 412386 449
201298 402475 443
661669 886554 525
443556 838137 525
14298 291159 443
980073 989820 427
130451 292933 443
996519 998255 440
681967 695818 442
154815 776644 509
953968 957386 383
745141 848971 525
727660 963483 525
789943 790728 375
218020 860863 525
160824 854702 525
140597 901070 525
159465 264399 443
914173 959809 507
307770 540163 470
515045 841912 525
239105 255539 368
986645 990221 396
873525 900258 445
251162 312372 407
26401 507833 449
231671 263009 381
336728 524310 470
681218 901894 525
50779 669603 509
783653 974294 525
182929 186071 329
851043 919388 476
175394 949250 525
31622 515323 470
249485 843737 525
82539 588550 470
974183 974956 334
539004 969874 525
478617 640514 509
879882 932958 476
968515 979759 458
429680 779879 509
214803 459693 449
298632 524398 470
737294 996273 525
935337 947990 507
306473 353190 441
976825 980491 383
269585 703650 509
433874 706051 509
26070 434743 449
530933 658120 509
208218 251205 443
285329 936933 525
254527 849564 525
962568 993765 458
290877 616734 470
951228 983916 458
117323 867945 525
92715 514378 470
447823 611428 470
318234 593007 470
491200 506038 426
884250 977459 507
777917 817278 468
417764 690331 509
804056 819510 450
947087 995803 458
229109 774066 509
600833 994089 525
333507 517334 470
547642 829262 509
503402 641496 509
651042 978581 525
167867 800802 509
54290 946782 525
999401 999816 290
835568 906808 525
596225 794430 509
187847 947164 525
563815 810526 509
338291 446689 449
852819 909251 445
178259 338581 443
535030 746299 509
